…
df_tbl<-df%>%
  dplyr::mutate(newdate = with(., ymd(Date) + hms(QuarterHour)))%>%
  #dplyr::mutate(newdate = with(., ymd(Date)))%>%
  group_by(RecordType, newdate)%>%
  filter(!RecordType %in% c("AgentState", "Callback call"))%>%
  filter(CallDirection=="Incoming" & 
           DoneInIVR==0 & AgentSequence==1)%>%
  count()%>%
  group_by(RecordType) %>%
  imputeTS::na_kalman(.) %>% 
  select(RecordType, newdate, n)%>%
  as_tsibble(key = RecordType, index = newdate) %>%
  fill_gaps(n = 0, .full = end())
> df_tbl
# A tsibble: 101,999 x 3 [15m] <UTC>
# Key:       RecordType [3]
# Groups:    RecordType [3]
   RecordType newdate                 n
   <chr>      <dttm>              <dbl>
 1 Chat call  2022-11-28 09:30:00     8
 2 Chat call  2022-11-28 09:45:00     1
 3 Chat call  2022-11-28 10:00:00     1
 4 Chat call  2022-11-28 10:15:00     0
 5 Chat call  2022-11-28 10:30:00     0
 6 Chat call  2022-11-28 10:45:00     0
 7 Chat call  2022-11-28 11:00:00     0
 8 Chat call  2022-11-28 11:15:00     0
 9 Chat call  2022-11-28 11:30:00     0
10 Chat call  2022-11-28 11:45:00     0
# ... with 101,989 more rows
```
…
对我来说，这些数字看起来不错。由于模型是概率，我们将提供一系列数字。但出于某种原因，尽管最低值为零，该模型还是预测到了负数。我将不得不在未来对此进行进一步的评估。

为了评估模型的有效性，我可以应用交叉验证。在这里，我将要求以 30 天为周期分割数据。

```
TC_df.cv <- prophet::cross_validation(fit, initial = 30, period = 30, horizon = 30, units = 'days')
prophet::plot_cross_validation_metric(TC_df.cv, metric = 'mape')
TC_df.cv
# A tibble: 3,039 x 6
       y ds                     yhat yhat_lower yhat_upper cutoff             
   <dbl> <dttm>                <dbl>      <dbl>      <dbl> <dttm>             
 1    48 2021-08-23 08:00:00  14.4         6.75      21.9  2021-08-20 17:00:00
 2    77 2021-08-23 09:00:00  34.7        27.3       42.1  2021-08-20 17:00:00
 3    57 2021-08-23 10:00:00  30.0        22.8       37.0  2021-08-20 17:00:00
 4    62 2021-08-23 11:00:00  21.7        14.5       29.3  2021-08-20 17:00:00
 5    61 2021-08-23 12:00:00  -0.240      -7.48       6.93 2021-08-20 17:00:00
 6    62 2021-08-23 13:00:00  -1.50       -9.06       6.09 2021-08-20 17:00:00
 7    56 2021-08-23 14:00:00  -5.02      -12.1        2.76 2021-08-20 17:00:00
 8    58 2021-08-23 15:00:00 -14.0       -21.4       -6.63 2021-08-20 17:00:00
 9    42 2021-08-23 16:00:00 -29.9       -36.7      -22.3  2021-08-20 17:00:00
10    39 2021-08-24 08:00:00 -24.5       -32.1      -17.3  2021-08-20 17:00:00
# ... with 3,029 more rows
```
…
